test
…
d <- transmute(dat,
               diagnosis_age = round(-birth_from_initial_pathologic_diagnosis_date/365.24),
               sex = factor(sex),
               race_category = factor(race_category),
               american_joint_committee_on_cancer_tumor_stage_code = factor(american_joint_committee_on_cancer_tumor_stage_code),
               mutation_count
               )

d

# A tibble: 566 x 5
   diagnosis_age sex    race_category american_joint_committee_o~ mutation_count
           <dbl> <fct>  <fct>         <fct>                                <dbl>
 1            71 Male   <NA>          T2                                     191
 2            67 Male   <NA>          T2                                     299
 3            80 Female <NA>          T3                                     311
 4            68 Male   <NA>          T2                                    1547
 5            67 Male   <NA>          T2                                     117
 6            70 Male   <NA>          T1                                     210
 7            59 Female <NA>          T2                                     518
 8            77 Male   <NA>          T4                                     230
 9            77 Male   <NA>          T4                                    1287
10            65 Male   <NA>          T2                                     749
# ... with 556 more rows
…
